<svg id="Stacked_Group" data-name="Stacked Group" xmlns="http://www.w3.org/2000/svg" xmlns:xlink="http://www.w3.org/1999/xlink" width="48" height="48" viewBox="0 0 48 48">
  <defs>
    <clipPath id="clip-path">
      <path id="Arrow_left" data-name="Arrow left" d="M21.6,2.138,4.725,18,21.6,33.862,19.237,36,0,18,19.237,0Z"/>
    </clipPath>
  </defs>
  <g id="Icon_Arrow_left" data-name="Icon / Arrow left">
    <g id="Group_1" data-name="Group 1" transform="translate(14 6)">
      <path id="Arrow_left-2" data-name="Arrow left" d="M21.6,2.138,4.725,18,21.6,33.862,19.237,36,0,18,19.237,0Z"/>
      <g id="Mask_Group_1" data-name="Mask Group 1" clip-path="url(#clip-path)">
        <g id="color" transform="translate(-14 -6)">
          <rect id="Accent_Primary" data-name="Accent Primary" width="48" height="48"/>
        </g>
      </g>
    </g>
  </g>
</svg>
